04/12/2021 11:28:15 PM: INFO: *********** Test_002_DDT_Login ***********
04/12/2021 11:28:15 PM: INFO: *********** Verifying Login Test ***********
04/12/2021 11:28:22 PM: INFO: *********** Passed ***********
04/12/2021 11:28:27 PM: INFO: *********** Passed ***********
04/12/2021 11:28:33 PM: INFO: *********** Passed ***********
04/12/2021 11:28:38 PM: INFO: *********** Passed ***********
04/12/2021 11:28:38 PM: INFO: *********** Login DDT test passed ***********
04/12/2021 11:31:29 PM: INFO: *********** Test_002_DDT_Login ***********
04/12/2021 11:31:29 PM: INFO: *********** Verifying Login Test ***********
04/12/2021 11:31:35 PM: INFO: *********** Passed ***********
04/12/2021 11:31:40 PM: INFO: *********** Passed ***********
04/12/2021 11:31:46 PM: INFO: *********** Passed ***********
04/12/2021 11:31:51 PM: INFO: *********** Passed ***********
04/12/2021 11:31:51 PM: INFO: *********** Login DDT test passed ***********
04/12/2021 11:32:37 PM: INFO: *********** Test_002_DDT_Login ***********
04/12/2021 11:32:37 PM: INFO: *********** Verifying Login Test ***********
04/12/2021 11:32:44 PM: INFO: *********** Passed ***********
04/12/2021 11:32:49 PM: INFO: *********** Passed ***********
04/12/2021 11:32:55 PM: INFO: *********** Passed ***********
04/12/2021 11:33:00 PM: INFO: *********** Passed ***********
04/12/2021 11:33:00 PM: INFO: *********** Login DDT test passed ***********
04/17/2021 06:10:55 PM: INFO: ************ Test_002_SignUP ************
04/17/2021 06:10:55 PM: INFO: ************ Verifying SignUp Page Title ************
04/17/2021 06:10:57 PM: INFO: ************ Sign UP page title validated ************
04/17/2021 08:39:59 PM: INFO: ************ Test_002_SignUP ************
04/17/2021 08:39:59 PM: INFO: ************ Verifying SignUp Page Title ************
04/17/2021 08:40:00 PM: INFO: ************ Sign UP page title validated ************
04/17/2021 08:40:00 PM: INFO: *********** Checking signup page test ended ***********
04/17/2021 08:40:02 PM: INFO: *********** Creating a new user ***********
04/17/2021 08:43:25 PM: INFO: ************ Test_002_SignUP ************
04/17/2021 08:43:25 PM: INFO: ************ Verifying SignUp Page Title ************
04/17/2021 08:43:27 PM: INFO: ************ Sign UP page title validated ************
04/17/2021 08:43:27 PM: INFO: *********** Checking signup page test ended ***********
04/17/2021 08:43:28 PM: INFO: *********** Creating a new user ***********
04/17/2021 08:43:35 PM: INFO: *********** Saving the new user ***********
04/17/2021 08:43:35 PM: INFO: *********** Add new user validation started ***********
04/17/2021 08:43:35 PM: INFO: *********** Add new user test failed ***********
04/17/2021 08:44:11 PM: INFO: ************ Test_002_SignUP ************
04/17/2021 08:44:11 PM: INFO: ************ Verifying SignUp Page Title ************
04/17/2021 08:44:15 PM: INFO: ************ Sign UP page title validated ************
04/17/2021 08:44:15 PM: INFO: *********** Checking signup page test ended ***********
04/17/2021 08:44:16 PM: INFO: *********** Creating a new user ***********
04/17/2021 08:44:23 PM: INFO: *********** Saving the new user ***********
04/17/2021 08:44:23 PM: INFO: *********** Add new user validation started ***********
04/17/2021 08:44:23 PM: INFO: *********** Add new user test failed ***********
04/17/2021 08:44:59 PM: INFO: ************ Test_002_SignUP ************
04/17/2021 08:44:59 PM: INFO: ************ Verifying SignUp Page Title ************
04/17/2021 08:45:02 PM: INFO: ************ Sign UP page title validated ************
04/17/2021 08:45:02 PM: INFO: *********** Checking signup page test ended ***********
04/17/2021 08:45:04 PM: INFO: *********** Creating a new user ***********
04/17/2021 08:46:14 PM: INFO: ************ Test_002_SignUP ************
04/17/2021 08:46:14 PM: INFO: ************ Verifying SignUp Page Title ************
04/17/2021 08:46:15 PM: INFO: ************ Sign UP page title validated ************
04/17/2021 08:46:15 PM: INFO: *********** Checking signup page test ended ***********
04/17/2021 08:46:17 PM: INFO: *********** Creating a new user ***********
04/17/2021 08:46:25 PM: INFO: *********** Saving the new user ***********
04/17/2021 08:46:25 PM: INFO: *********** Add new user validation started ***********
04/17/2021 08:46:25 PM: INFO: *********** Add new user test passed ***********
04/17/2021 08:46:25 PM: INFO: *********** Creating a new user test ended ***********
04/17/2021 08:48:29 PM: INFO: ************ Test_002_SignUP ************
04/17/2021 08:48:29 PM: INFO: ************ Verifying SignUp Page Title ************
04/17/2021 08:48:30 PM: INFO: ************ Sign UP page title validated ************
04/17/2021 08:48:30 PM: INFO: *********** Checking signup page test ended ***********
04/17/2021 08:48:32 PM: INFO: *********** Creating a new user ***********
04/17/2021 08:48:47 PM: INFO: *********** Saving the new user ***********
04/17/2021 08:48:47 PM: INFO: *********** Add new user validation started ***********
04/17/2021 08:48:47 PM: INFO: *********** Add new user test passed ***********
04/17/2021 08:48:48 PM: INFO: *********** Creating a new user test ended ***********
04/18/2021 12:09:10 PM: ERROR: *********** Login Test Failed ***********
04/18/2021 12:10:23 PM: INFO: ************ Login data validated ************
04/18/2021 12:10:23 PM: INFO: ************ Pay Bill Page validated ************
04/18/2021 12:10:24 PM: INFO: ************ Payment test failed ************
04/18/2021 12:14:07 PM: INFO: ************ Login data validated ************
04/18/2021 12:14:07 PM: INFO: ************ Pay Bill Page validated ************
04/18/2021 12:14:07 PM: INFO: ************ Payment test failed ************
04/18/2021 12:15:29 PM: INFO: ************ Login data validated ************
04/18/2021 12:15:29 PM: INFO: ************ Pay Bill Page validated ************
04/18/2021 12:15:39 PM: INFO: ************ Payment test failed ************
04/18/2021 12:16:28 PM: INFO: ************ Login data validated ************
04/18/2021 12:16:28 PM: INFO: ************ Pay Bill Page validated ************
04/18/2021 12:16:38 PM: INFO: ************ Payment test passed ************
